<?xml version="1.0" encoding="UTF-8"?>
<svg width="32px" height="29px" viewBox="0 0 32 29" version="1.1" xmlns="http://www.w3.org/2000/svg" xmlns:xlink="http://www.w3.org/1999/xlink">
    <!-- Generator: Sketch 61.2 (89653) - https://sketch.com -->
    <title>Path</title>
    <desc>Created with Sketch.</desc>
    <g id="desktop" stroke="none" stroke-width="1" fill="none" fill-rule="evenodd">
        <g id="mobile---2.0---kontakt" transform="translate(-459.000000, -126.000000)" fill="#39A7DE" fill-rule="nonzero">
            <g id="Group-6" transform="translate(607.500000, 227.500000) rotate(-360.000000) translate(-607.500000, -227.500000) translate(434.000000, 100.000000)">
                <g id="Group" transform="translate(25.000000, 26.500000)">
                    <g id="icons8-a_home" transform="translate(0.000000, 6.000000)">
                        <path d="M16,-6 C15.6114641,-6 15.2390976,-5.84240994 14.9659084,-5.5625 L0.295454545,7.407072 C0.109645793,7.54598412 0,7.76604275 0,8 C0,8.40694666 0.325611091,8.73684211 0.727272727,8.73684211 L4.36363636,8.73684211 L4.36363636,20.5263158 C4.36363636,21.3397895 5.01527273,22 5.81818182,22 L11.6363636,22 C12.4392727,22 13.0909091,21.3397895 13.0909091,20.5263158 L13.0909091,11.6842105 L18.9090909,11.6842105 L18.9090909,20.5263158 C18.9090909,21.3397895 19.5607273,22 20.3636364,22 L26.1818182,22 C26.9847273,22 27.6363636,21.3397895 27.6363636,20.5263158 L27.6363636,8.73684211 L31.2727273,8.73684211 C31.6743889,8.73684211 32,8.40694666 32,8 C32,7.76604275 31.8903542,7.54598412 31.7045455,7.407072 L17.0426138,-5.55386509 C17.0397849,-5.55675531 17.0369441,-5.55963363 17.0340916,-5.5625 C16.7609024,-5.84240994 16.3885359,-6 16,-6 Z" id="Path"></path>
                    </g>
                </g>
            </g>
        </g>
    </g>
</svg>