<?xml version="1.0" encoding="UTF-8"?>
<svg width="27px" height="23px" viewBox="0 0 27 23" version="1.1" xmlns="http://www.w3.org/2000/svg" xmlns:xlink="http://www.w3.org/1999/xlink">
    <!-- Generator: Sketch 61.2 (89653) - https://sketch.com -->
    <title>case</title>
    <desc>Created with Sketch.</desc>
    <g id="desktop" stroke="none" stroke-width="1" fill="none" fill-rule="evenodd">
        <g id="destkop---2.0---ekran_powitalny" transform="translate(-1096.000000, -731.000000)" fill="#27A9E0" fill-rule="nonzero">
            <g id="Group-12" transform="translate(1009.000000, 726.000000)">
                <g id="Group-16">
                    <g id="Group-5">
                        <g id="Group-11">
                            <g id="case" transform="translate(87.000000, 5.000000)">
                                <path d="M12.4615385,0 C11.3140385,0 10.3846154,0.954666667 10.3846154,2.13333333 L2.07692308,2.13333333 C0.929423077,2.13333333 0,3.088 0,4.26666667 L0,13.8666667 C0,15.0453333 0.929423077,16 2.07692308,16 L24.9230769,16 C26.0705769,16 27,15.0453333 27,13.8666667 L27,4.26666667 C27,3.088 26.0705769,2.13333333 24.9230769,2.13333333 L16.6153846,2.13333333 C16.6153846,0.954666667 15.6859615,0 14.5384615,0 L12.4615385,0 Z M13,12 C13.552,12 14,12.448 14,13 C14,13.552 13.552,14 13,14 C12.448,14 12,13.552 12,13 C12,12.448 12.448,12 13,12 Z M0,17 L0,20.8404219 C0,22.0335888 0.929423077,23 2.07692308,23 L24.9230769,23 C26.0705769,23 27,22.0335888 27,20.8404219 L27,17 C26.3862692,17.3714474 25.6832308,17.6010548 24.9230769,17.6010548 L2.07692308,17.6010548 C1.31676923,17.6010548 0.613730769,17.3714474 0,17 Z" id="Shape"></path>
                            </g>
                        </g>
                    </g>
                </g>
            </g>
        </g>
    </g>
</svg>