<?xml version="1.0" encoding="UTF-8"?>
<svg width="23px" height="23px" viewBox="0 0 23 23" version="1.1" xmlns="http://www.w3.org/2000/svg" xmlns:xlink="http://www.w3.org/1999/xlink">
    <!-- Generator: Sketch 61.2 (89653) - https://sketch.com -->
    <title>icon_tick</title>
    <desc>Created with Sketch.</desc>
    <g id="desktop" stroke="none" stroke-width="1" fill="none" fill-rule="evenodd">
        <g id="destkop---2.0---ekran_powitalny" transform="translate(-654.000000, -731.000000)" fill="#27A9E0" fill-rule="nonzero">
            <g id="Group-9" transform="translate(599.000000, 726.000000)">
                <g id="Group-17">
                    <g id="Group-10">
                        <g id="icon_tick" transform="translate(55.000000, 5.000000)">
                            <path d="M11.5,0 C5.140553,0 0,5.140553 0,11.5 C0,17.859447 5.140553,23 11.5,23 C17.859447,23 23,17.859447 23,11.5 C23,5.140553 17.859447,0 11.5,0 Z M16.7085807,8.84272997 L10.0512682,15.6795252 C9.8440367,15.8931751 9.5849973,16 9.32595791,16 C9.06691851,16 8.78197518,15.8931751 8.6006476,15.6795252 L5.31084727,12.3145401 C4.89638424,11.8872404 4.89638424,11.2195846 5.31084727,10.7922849 C5.72531031,10.3649852 6.3729088,10.3649852 6.78737183,10.7922849 L9.32595791,13.4094955 L15.2320561,7.32047478 C15.6465192,6.89317507 16.2941176,6.89317507 16.7085807,7.32047478 C17.0971398,7.74777448 17.0971398,8.4421365 16.7085807,8.84272997 Z" id="Shape"></path>
                        </g>
                    </g>
                </g>
            </g>
        </g>
    </g>
</svg>